sim/verilator/axi/axi_lite_master_write.vcd
$date
	Mon Feb 27 09:11:34 2017
$end
$version
	GTKWave Analyzer v3.3.58 (w)1999-2014 BSI
$end
$timescale
	1ns
$end
$scope module TOP $end
$scope module v $end
$var wire 1 * S_AXI_WVALID $end
$var wire 4 ) S_AXI_WSTRB[3:0] $end
$var wire 1 + S_AXI_WREADY $end
$var wire 32 ( S_AXI_WDATA[31:0] $end
$var wire 1 - S_AXI_BVALID $end
$var wire 2 . S_AXI_BRESP[1:0] $end
$var wire 1 , S_AXI_BREADY $end
$var wire 1 & S_AXI_AWVALID $end
$var wire 1 ' S_AXI_AWREADY $end
$var wire 3 $ S_AXI_AWPROT[2:0] $end
$var wire 5 % S_AXI_AWADDR[4:0] $end
$var wire 1 # S_AXI_ARESETN $end
$var wire 1 " S_AXI_ACLK $end
$upscope $end
$upscope $end
$enddefinitions $end
$dumpvars
#8
0,
b0 $
b0 (
0*
b0 )
0-
0&
0'
0"
b0 .
b0 %
0+
0#
#10
1"
#15
0"
#20
1"
#25
0"
#28
1#
#30
1"
#35
0"
#38
1&
b1111 (
1,
1*
b1010 %
#40
1"
1+
1'
#45
0"
#50
1"
1-
0'
0+
#55
0"
#58
0&
0*
#60
1"
0-
#65
0"
#68
0,
#70
1"
#75
0"
#80
1"
#85
0"
#90
1"
#95
0"
#100
1"
#105
0"
#110
1"
#115
0"
#118
1,
1*
1&
#120
1"
1+
1'
#125
0"
#130
1"
0'
0+
1-
#135
0"
#138
0&
0*
#140
1"
0-
#145
0"
#148
0,
#150
1"
#155
0"
#160
1"
#165
0"
#170
1"
#175
0"
#180
1"
#185
0"
#190
1"
#195
0"
#198
1,
1*
1&
#200
1"
1+
1'
#205
0"
#210
1"
1-
0'
0+
#215
0"
#218
0&
0*
#220
1"
0-
#225
0"
#228
0,
#230
1"
#235
0"
#240
1"
#245
0"
#250
1"
#255
0"
#260
1"
#265
0"
#270
1"
#275
0"
#278
1,
1*
1&
#280
1"
1+
1'
#285
0"
#290
1"
0'
0+
1-
#295
0"
#298
0&
0*
#300
1"
0-
#305
0"
#308
0,
#310
1"
#315
0"
#320
1"
#325
0"
#330
1"
#335
0"
#340
1"
#345
0"
#350
1"
#355
0"
#358
1,
1*
1&
#360
1"
1+
1'
#365
0"
#370
1"
1-
0'
0+
#375
0"
#378
0&
0*
#380
1"
0-
#385
0"
#388
0,
#390
1"
#395
0"
#400
1"
#405
0"
#410
1"
#415
0"
#420
1"
#425
0"
#430
1"
#435
0"
#438
1,
1*
1&
#440
1"
1+
1'
#445
0"
#450
1"
0'
0+
1-
#455
0"
#458
0&
0*
#460
1"
0-
#465
0"
#468
0,
#470
1"
#475
0"
#480
1"
#485
0"
#490
1"
#495
0"
#500
1"
#505
0"
#510
1"
#515
0"
#518
1,
1*
1&
#520
1"
1+
1'
#525
0"
#530
1"
1-
0'
0+
#535
0"
#538
0&
0*
#540
1"
0-
#545
0"
#548
0,
#550
1"
#555
0"
#560
1"
#565
0"
#570
1"
#575
0"
#580
1"
#585
0"
#590
1"
#595
0"
#598
1,
1*
1&
#600
1"
1+
1'
#605
0"
#610
1"
0'
0+
1-
#615
0"
#618
0&
0*
#620
1"
0-
#625
0"
#628
0,
#630
1"
#635
0"
#640
1"
#645
0"
#650
1"
#655
0"
#660
1"
#665
0"
#670
1"
#675
0"
#678
1,
1*
1&
#680
1"
1+
1'
#685
0"
#690
1"
1-
0'
0+
#695
0"
#698
0&
0*
#700
1"
0-
#705
0"
#708
0,
#710
1"
#715
0"
#720
1"
#725
0"
#730
1"
#735
0"
#740
1"
#745
0"
#750
1"
#755
0"
#758
1,
1*
1&
#760
1"
1+
1'
#765
0"
#770
1"
0'
0+
1-
#775
0"
#778
0&
0*
#780
1"
0-
#785
0"
#788
0,
#790
1"
#795
0"
#800
1"
#805
0"
#810
1"
#815
0"
#820
1"
#825
0"
#830
1"
#835
0"
#838
1,
1*
1&
#840
1"
1+
1'
#845
0"
#850
1"
1-
0'
0+
#855
0"
#858
0&
0*
#860
1"
0-
#865
0"
#868
0,
#870
1"
#875
0"
#880
1"
#885
0"
#890
1"
#895
0"
#900
1"
#905
0"
#910
1"
#915
0"
#918
1,
1*
1&
#920
1"
1+
1'
#925
0"
#930
1"
0'
0+
1-
#935
0"
#938
0&
0*
#940
1"
0-
#945
0"
#948
0,
#950
1"
#955
0"
#960
1"
#965
0"
#970
1"
#975
0"
#980
1"
#985
0"
#990
1"
#995
0"
#998
1,
1*
1&
#1000
1"
1+
1'
#1005
0"
#1010
1"
1-
0'
0+
#1015
0"
#1018
0&
0*
#1020
1"
0-
#1025
0"
#1028
0,
#1030
1"
#1035
0"
#1040
1"
#1045
0"
#1050
1"
#1055
0"
#1060
1"
#1065
0"
#1070
1"
#1075
0"
#1078
1,
1*
1&
#1080
1"
1+
1'
#1085
0"
#1090
1"
0'
0+
1-
#1095
0"
#1098
0&
0*
#1100
1"
0-
#1105
0"
#1108
0,
#1110
1"
#1115
0"
#1120
1"
#1125
0"
#1130
1"
#1135
0"
#1140
1"
#1145
0"
#1150
1"
#1155
0"
#1158
1,
1*
1&
#1160
1"
1+
1'
#1165
0"
#1170
1"
1-
0'
0+
#1175
0"
#1178
0&
0*
#1180
1"
0-
#1185
0"
#1188
0,
#1190
1"
#1195
0"
#1200
1"
#1205
0"
#1210
1"
#1215
0"
#1220
1"
#1225
0"
#1230
1"
#1235
0"
#1238
1,
1*
1&
#1240
1"
1+
1'
#1245
0"
#1250
1"
0'
0+
1-
#1255
0"
#1258
0&
0*
#1260
1"
0-
#1265
0"
#1268
0,
#1270
1"
#1275
0"
#1280
1"
#1285
0"
#1290
1"
#1295
0"
#1300
1"
#1305
0"
#1310
1"
#1315
0"
#1318
1,
1*
1&
#1320
1"
1+
1'
#1325
0"
#1330
1"
1-
0'
0+
#1335
0"
#1338
0&
0*
#1340
1"
0-
#1345
0"
#1348
0,
#1350
1"
#1355
0"
#1360
1"
#1365
0"
#1370
1"
#1375
0"
#1380
1"
#1385
0"
#1390
1"
#1395
0"
#1398
1,
1*
1&
#1400
1"
1+
1'
#1405
0"
#1410
1"
0'
0+
1-
#1415
0"
#1418
0&
0*
#1420
1"
0-
#1425
0"
#1428
0,
#1430
1"
#1435
0"
#1440
1"
#1445
0"
#1450
1"
#1455
0"
#1460
1"
#1465
0"
#1470
1"
#1475
0"
#1478
1,
1*
1&
#1480
1"
1+
1'
#1485
0"
#1490
1"
1-
0'
0+
#1495
0"
#1498
0&
0*
#1500
1"
0-
#1505
0"
#1508
0,
#1510
1"
#1515
0"
#1520
1"
#1525
0"
#1530
1"
#1535
0"
#1540
1"
#1545
0"
#1550
1"
#1555
0"
#1558
1,
1*
1&
#1560
1"
1+
1'
#1565
0"
#1570
1"
0'
0+
1-
#1575
0"
#1578
0&
0*
#1580
1"
0-
#1585
0"
#1588
0,
#1590
1"
#1595
0"
#1600
1"
#1605
0"
#1610
1"
#1615
0"
#1620
1"
#1625
0"
#1630
1"
#1635
0"
#1638
1,
1*
1&
#1640
1"
1+
1'
#1645
0"
#1650
1"
1-
0'
0+
#1655
0"
#1658
0&
0*
#1660
1"
0-
#1665
0"
#1668
0,
#1670
1"
#1675
0"
#1680
1"
#1685
0"
#1690
1"
#1695
0"
#1700
1"
#1705
0"
#1710
1"
#1715
0"
#1718
1,
1*
1&
#1720
1"
1+
1'
#1725
0"
#1730
1"
0'
0+
1-
#1735
0"
#1738
0&
0*
#1740
1"
0-
#1745
0"
#1748
0,
#1750
1"
#1755
0"
#1760
1"
#1765
0"
#1770
1"
#1775
0"
#1780
1"
#1785
0"
#1790
1"
#1795
0"
#1798
1,
1*
1&
#1800
1"
1+
1'
#1805
0"
#1810
1"
1-
0'
0+
#1815
0"
#1818
0&
0*
#1820
1"
0-
#1825
0"
#1828
0,
#1830
1"
#1835
0"
#1840
1"
#1845
0"
#1850
1"
#1855
0"
#1860
1"
#1865
0"
#1870
1"
#1875
0"
#1878
1,
1*
1&
#1880
1"
1+
1'
#1885
0"
#1890
1"
0'
0+
1-
#1895
0"
#1898
0&
0*
#1900
1"
0-
#1905
0"
#1908
0,
#1910
1"
#1915
0"
#1920
1"
#1925
0"
#1930
1"
#1935
0"
#1940
1"
#1945
0"
#1950
1"
#1955
0"
#1958
1,
1*
1&
#1960
1"
1+
1'
#1965
0"
#1970
1"
1-
0'
0+
#1975
0"
#1978
0&
0*
#1980
1"
0-
#1985
0"
#1988
0,
#1990
1"
#1995
0"
#2000
1"
#2005
0"
#2010
1"
#2015
0"
#2020
1"
#2025
0"
#2030
1"
#2035
0"
#2038
1,
1*
1&
#2040
1"
1+
1'
#2045
0"
#2050
1"
0'
0+
1-
#2055
0"
#2058
0&
0*
#2060
1"
0-
#2065
0"
#2068
0,
#2070
1"
#2075
0"
#2080
1"
#2085
0"
#2090
1"
#2095
0"
#2100
1"
#2105
0"
#2110
1"
#2115
0"
#2118
1,
1*
1&
#2120
1"
1+
1'
#2125
0"
#2130
1"
1-
0'
0+
#2135
0"
#2138
0&
0*
#2140
1"
0-
#2145
0"
#2148
0,
#2150
1"
#2155
0"
#2160
1"
#2165
0"
#2170
1"
#2175
0"
#2180
1"
#2185
0"
#2190
1"
#2195
0"
#2198
1,
1*
1&
#2200
1"
1+
1'
#2205
0"
#2210
1"
0'
0+
1-
#2215
0"
#2218
0&
0*
#2220
1"
0-
#2225
0"
#2228
0,
#2230
1"
#2235
0"
#2240
1"
#2245
0"
#2250
1"
#2255
0"
#2260
1"
#2265
0"
#2270
1"
#2275
0"
#2278
1,
1*
1&
#2280
1"
1+
1'
#2285
0"
#2290
1"
1-
0'
0+
#2295
0"
#2298
0&
0*
#2300
1"
0-
#2305
0"
#2308
0,
#2310
1"
#2315
0"
#2320
1"
#2325
0"
#2330
1"
#2335
0"
#2340
1"
#2345
0"
#2350
1"
#2355
0"
#2358
1,
1*
1&
#2360
1"
1+
1'
#2365
0"
#2370
1"
0'
0+
1-
#2375
0"
#2378
0&
0*
#2380
1"
0-
#2385
0"
#2388
0,
#2390
1"
#2395
0"
#2400
1"
#2405
0"
#2410
1"
#2415
0"
#2420
1"
#2425
0"
#2430
1"
#2435
0"
#2438
1,
1*
1&
#2440
1"
1+
1'
#2445
0"
#2450
1"
1-
0'
0+
#2455
0"
#2458
0&
0*
#2460
1"
0-
#2465
0"
#2468
0,
#2470
1"
#2475
0"
#2480
1"
#2485
0"
#2490
1"
#2495
0"
#2500
1"
#2505
0"
#2510
1"
#2515
0"
#2518
1,
1*
1&
#2520
1"
1+
1'
#2525
0"
#2530
1"
0'
0+
1-
#2535
0"
#2538
0&
0*
#2540
1"
0-
#2545
0"
#2548
0,
#2550
1"
#2555
0"
#2560
1"
#2565
0"
#2570
1"
#2575
0"
#2580
1"
#2585
0"
#2590
1"
#2595
0"
#2598
1,
1*
1&
#2600
1"
1+
1'
#2605
0"
#2610
1"
1-
0'
0+
#2615
0"
#2618
0&
0*
#2620
1"
0-
#2625
0"
#2628
0,
#2630
1"
#2635
0"
#2640
1"
#2645
0"
#2650
1"
#2655
0"
#2660
1"
#2665
0"
#2670
1"
#2675
0"
#2678
1,
1*
1&
#2680
1"
1+
1'
#2685
0"
#2690
1"
0'
0+
1-
#2695
0"
#2698
0&
0*
#2700
1"
0-
#2705
0"
#2708
0,
#2710
1"
#2715
0"
#2720
1"
#2725
0"
#2730
1"
#2735
0"
#2740
1"
#2745
0"
#2750
1"
#2755
0"
#2758
1,
1*
1&
#2760
1"
1+
1'
#2765
0"
#2770
1"
1-
0'
0+
#2775
0"
#2778
0&
0*
#2780
1"
0-
#2785
0"
#2788
0,
#2790
1"
#2795
0"
#2800
1"
#2805
0"
#2810
1"
#2815
0"
#2820
1"
#2825
0"
#2830
1"
#2835
0"
#2838
1,
1*
1&
#2840
1"
1+
1'
#2845
0"
#2850
1"
0'
0+
1-
#2855
0"
#2858
0&
0*
#2860
1"
0-
#2865
0"
#2868
0,
#2870
1"
#2875
0"
#2880
1"
#2885
0"
#2890
1"
#2895
0"
#2900
1"
#2905
0"
#2910
1"
#2915
0"
#2918
1,
1*
1&
#2920
1"
1+
1'
#2925
0"
#2930
1"
1-
0'
0+
#2935
0"
#2938
0&
0*
#2940
1"
0-
#2945
0"
#2948
0,
#2950
1"
#2955
0"
#2960
1"
#2965
0"
#2970
1"
#2975
0"
#2980
1"
#2985
0"
#2990
1"
#2995
0"
#2998
1,
1*
1&
#3000
1"
1+
1'
#3005
0"
#3010
1"
0'
0+
1-
#3015
0"
#3018
0&
0*
#3020
1"
0-
#3025
0"
#3028
0,
#3030
1"
#3035
0"
#3040
1"
#3045
0"
#3050
1"
#3055
0"
#3060
1"
#3065
0"
#3070
1"
#3075
0"
#3078
1,
1*
1&
#3080
1"
1+
1'
#3085
0"
#3090
1"
1-
0'
0+
#3095
0"
#3098
0&
0*
#3100
1"
0-
#3105
0"
#3108
0,
#3110
1"
#3115
0"
#3120
1"
#3125
0"
#3130
1"
#3135
0"
#3140
1"
#3145
0"
#3150
1"
#3155
0"
#3158
1,
1*
1&
#3160
1"
1+
1'
#3165
0"
#3170
1"
0'
0+
1-
#3175
0"
#3178
0&
0*
#3180
1"
0-
#3185
0"
#3188
0,
#3190
1"
#3195
0"
#3200
1"
#3205
0"
#3210
1"
#3215
0"
#3220
1"
#3225
0"
#3230
1"
#3235
0"
#3238
1,
1*
1&
#3240
1"
1+
1'
#3245
0"
#3250
1"
1-
0'
0+
#3255
0"
#3258
0&
0*
#3260
1"
0-
#3265
0"
#3268
0,
#3270
1"
#3275
0"
#3280
1"
#3285
0"
#3290
1"
#3295
0"
#3300
1"
#3305
0"
#3310
1"
#3315
0"
#3318
1,
1*
1&
#3320
1"
1+
1'
#3325
0"
#3330
1"
0'
0+
1-
#3335
0"
#3338
0&
0*
#3340
1"
0-
#3345
0"
#3348
0,
#3350
1"
#3355
0"
#3360
1"
#3365
0"
#3370
1"
#3375
0"
#3380
1"
#3385
0"
#3390
1"
#3395
0"
#3398
1,
1*
1&
#3400
1"
1+
1'
#3405
0"
#3410
1"
1-
0'
0+
#3415
0"
#3418
0&
0*
#3420
1"
0-
#3425
0"
#3428
0,
#3430
1"
#3435
0"
#3440
1"
#3445
0"
#3450
1"
#3455
0"
#3460
1"
#3465
0"
#3470
1"
#3475
0"
#3478
1,
1*
1&
#3480
1"
1+
1'
#3485
0"
#3490
1"
0'
0+
1-
#3495
0"
#3498
0&
0*
#3500
1"
0-
#3505
0"
#3508
0,
#3510
1"
#3515
0"
#3520
1"
#3525
0"
#3530
1"
#3535
0"
#3540
1"
#3545
0"
#3550
1"
#3555
0"
#3558
1,
1*
1&
#3560
1"
1+
1'
#3565
0"
#3570
1"
1-
0'
0+
#3575
0"
#3578
0&
0*
#3580
1"
0-
#3585
0"
#3588
0,
#3590
1"
#3595
0"
#3600
1"
#3605
0"
#3610
1"
#3615
0"
#3620
1"
#3625
0"
#3630
1"
#3635
0"
#3638
1,
1*
1&
#3640
1"
1+
1'
#3645
0"
#3650
1"
0'
0+
1-
#3655
0"
#3658
0&
0*
#3660
1"
0-
#3665
0"
#3668
0,
#3670
1"
#3675
0"
#3680
1"
#3685
0"
#3690
1"
#3695
0"
#3700
1"
#3705
0"
#3710
1"
#3715
0"
#3718
1,
1*
1&
#3720
1"
1+
1'
#3725
0"
#3730
1"
1-
0'
0+
#3735
0"
#3738
0&
0*
#3740
1"
0-
#3745
0"
#3748
0,
#3750
1"
#3755
0"
#3760
1"
#3765
0"
#3770
1"
#3775
0"
#3780
1"
#3785
0"
#3790
1"
#3795
0"
#3798
1,
1*
1&
#3800
1"
1+
1'
#3805
0"
#3810
1"
0'
0+
1-
#3815
0"
#3818
0&
0*
#3820
1"
0-
#3825
0"
#3828
0,
#3830
1"
#3835
0"
#3840
1"
#3845
0"
#3850
1"
#3855
0"
#3860
1"
#3865
0"
#3870
1"
#3875
0"
#3878
1,
1*
1&
#3880
1"
1+
1'
#3885
0"
#3890
1"
1-
0'
0+
#3895
0"
#3898
0&
0*
#3900
1"
0-
#3905
0"
#3908
0,
#3910
1"
#3915
0"
#3920
1"
#3925
0"
#3930
1"
#3935
0"
#3940
1"
#3945
0"
#3950
1"
#3955
0"
#3958
1,
1*
1&
#3960
1"
1+
1'
#3965
0"
#3970
1"
0'
0+
1-
#3975
0"
#3978
0&
0*
#3980
1"
0-
#3985
0"
#3988
0,
#3990
1"
#3995
0"
#4000
1"
#4005
0"
#4010
1"
#4015
0"
#4020
1"
#4025
0"
#4030
1"
#4035
0"
#4038
1,
1*
1&
#4040
1"
1+
1'
#4045
0"
#4050
1"
1-
0'
0+
#4055
0"
#4058
0&
0*
#4060
1"
0-
#4065
0"
#4068
0,
#4070
1"
#4075
0"
#4080
1"
#4085
0"
#4090
1"
#4095
0"
#4100
1"
#4105
0"
#4110
1"
#4115
0"
#4118
1,
1*
1&
#4120
1"
1+
1'
#4125
0"
#4130
1"
0'
0+
1-
#4135
0"
#4138
0&
0*
#4140
1"
0-
#4145
0"
#4148
0,
#4150
1"
#4155
0"
#4160
1"
#4165
0"
#4170
1"
#4175
0"
#4180
1"
#4185
0"
#4190
1"
#4195
0"
#4198
1,
1*
1&
#4200
1"
1+
1'
#4205
0"
#4210
1"
1-
0'
0+
#4215
0"
#4218
0&
0*
#4220
1"
0-
#4225
0"
#4228
0,
#4230
1"
#4235
0"
#4240
1"
#4245
0"
#4250
1"
#4255
0"
#4260
1"
#4265
0"
#4270
1"
#4275
0"
#4278
1,
1*
1&
#4280
1"
1+
1'
#4285
0"
#4290
1"
0'
0+
1-
#4295
0"
#4298
0&
0*
#4300
1"
0-
#4305
0"
#4308
0,
#4310
1"
#4315
0"
#4320
1"
#4325
0"
#4330
1"
#4335
0"
#4340
1"
#4345
0"
#4350
1"
#4355
0"
#4358
1,
1*
1&
#4360
1"
1+
1'
#4365
0"
#4370
1"
1-
0'
0+
#4375
0"
#4378
0&
0*
#4380
1"
0-
#4385
0"
#4388
0,
#4390
1"
#4395
0"
#4400
1"
#4405
0"
#4410
1"
#4415
0"
#4420
1"
#4425
0"
#4430
1"
#4435
0"
#4438
1,
1*
1&
#4440
1"
1+
1'
#4445
0"
#4450
1"
0'
0+
1-
#4455
0"
#4458
0&
0*
#4460
1"
0-
#4465
0"
#4468
0,
#4470
1"
#4475
0"
#4480
1"
#4485
0"
#4490
1"
#4495
0"
#4500
1"
#4505
0"
#4510
1"
#4515
0"
#4518
1,
1*
1&
#4520
1"
1+
1'
#4525
0"
#4530
1"
1-
0'
0+
#4535
0"
#4538
0&
0*
#4540
1"
0-
#4545
0"
#4548
0,
#4550
1"
#4555
0"
#4560
1"
#4565
0"
#4570
1"
#4575
0"
#4580
1"
#4585
0"
#4590
1"
#4595
0"
#4598
1,
1*
1&
#4600
1"
1+
1'
#4605
0"
#4610
1"
0'
0+
1-
#4615
0"
#4618
0&
0*
#4620
1"
0-
#4625
0"
#4628
0,
#4630
1"
#4635
0"
#4640
1"
#4645
0"
#4650
1"
#4655
0"
#4660
1"
#4665
0"
#4670
1"
#4675
0"
#4678
1,
1*
1&
#4680
1"
1+
1'
#4685
0"
#4690
1"
1-
0'
0+
#4695
0"
#4698
0&
0*
#4700
1"
0-
#4705
0"
#4708
0,
#4710
1"
#4715
0"
#4720
1"
#4725
0"
#4730
1"
#4735
0"
#4740
1"
#4745
0"
#4750
1"
#4755
0"
#4758
1,
1*
1&
#4760
1"
1+
1'
#4765
0"
#4770
1"
0'
0+
1-
#4775
0"
#4778
0&
0*
#4780
1"
0-
#4785
0"
#4788
0,
#4790
1"
#4795
0"
#4800
1"
#4805
0"
#4810
1"
#4815
0"
#4820
1"
#4825
0"
#4830
1"
#4835
0"
#4838
1,
1*
1&
#4840
1"
1+
1'
#4845
0"
#4850
1"
1-
0'
0+
#4855
0"
#4858
0&
0*
#4860
1"
0-
#4865
0"
#4868
0,
#4870
1"
#4875
0"
#4880
1"
#4885
0"
#4890
1"
#4895
0"
#4900
1"
#4905
0"
#4910
1"
#4915
0"
#4918
1,
1*
1&
#4920
1"
1+
1'
#4925
0"
#4930
1"
0'
0+
1-
#4935
0"
#4938
0&
0*
#4940
1"
0-
#4945
0"
#4948
0,
#4950
1"
#4955
0"
#4960
1"
#4965
0"
#4970
1"
#4975
0"
#4980
1"
#4985
0"
#4990
1"
#4995
0"
#4998
1,
1*
1&
#5000
1"
1+
1'
#5005
0"
#5010
1"
1-
0'
0+
#5015
0"
#5018
0&
0*
#5020
1"
0-
#5025
0"
#5028
0,
#5030
1"
#5035
0"
#5040
1"
#5045
0"
#5050
1"
#5055
0"
#5060
1"
#5065
0"
#5070
1"
#5075
0"
#5078
1,
1*
1&
#5080
1"
1+
1'
#5085
0"
#5090
1"
0'
0+
1-
#5095
0"
#5098
0&
0*
#5100
1"
0-
#5105
0"
#5108
0,
#5110
1"
#5115
0"
#5120
1"
#5125
0"
#5130
1"
#5135
0"
#5140
1"
#5145
0"
#5150
1"
#5155
0"
#5158
1,
1*
1&
#5160
1"
1+
1'
#5165
0"
#5170
1"
1-
0'
0+
#5175
0"
#5178
0&
0*
#5180
1"
0-
#5185
0"
#5188
0,
#5190
1"
#5195
0"
#5200
1"
#5205
0"
#5210
1"
#5215
0"
#5220
1"
#5225
0"
#5230
1"
#5235
0"
#5238
1,
1*
1&
#5240
1"
1+
1'
#5245
0"
#5250
1"
0'
0+
1-
#5255
0"
#5258
0&
0*
#5260
1"
0-
#5265
0"
#5268
0,
#5270
1"
#5275
0"
#5280
1"
#5285
0"
#5290
1"
#5295
0"
#5300
1"
#5305
0"
#5310
1"
#5315
0"
#5318
1,
1*
1&
#5320
1"
1+
1'
#5325
0"
#5330
1"
1-
0'
0+
#5335
0"
#5338
0&
0*
#5340
1"
0-
#5345
0"
#5348
0,
#5350
1"
#5355
0"
#5360
1"
#5365
0"
#5370
1"
#5375
0"
#5380
1"
#5385
0"
#5390
1"
#5395
0"
#5398
1,
1*
1&
#5400
1"
1+
1'
#5405
0"
#5410
1"
0'
0+
1-
#5415
0"
#5418
0&
0*
#5420
1"
0-
#5425
0"
#5428
0,
#5430
1"
#5435
0"
#5440
1"
#5445
0"
#5450
1"
#5455
0"
#5460
1"
#5465
0"
#5470
1"
#5475
0"
#5478
1,
1*
1&
#5480
1"
1+
1'
#5485
0"
#5490
1"
1-
0'
0+
#5495
0"
#5498
0&
0*
#5500
1"
0-
#5505
0"
#5508
0,
#5510
1"
#5515
0"
#5520
1"
#5525
0"
#5530
1"
#5535
0"
#5540
1"
#5545
0"
#5550
1"
#5555
0"
#5558
1,
1*
1&
#5560
1"
1+
1'
#5565
0"
#5570
1"
0'
0+
1-
#5575
0"
#5578
0&
0*
#5580
1"
0-
#5585
0"
#5588
0,
#5590
1"
#5595
0"
#5600
1"
#5605
0"
#5610
1"
#5615
0"
#5620
1"
#5625
0"
#5630
1"
#5635
0"
#5638
1,
1*
1&
#5640
1"
1+
1'
#5645
0"
#5650
1"
1-
0'
0+
#5655
0"
#5658
0&
0*
#5660
1"
0-
#5665
0"
#5668
0,
#5670
1"
#5675
0"
#5680
1"
#5685
0"
#5690
1"
#5695
0"
#5700
1"
#5705
0"
#5710
1"
#5715
0"
#5718
1,
1*
1&
#5720
1"
1+
1'
#5725
0"
#5730
1"
0'
0+
1-
#5735
0"
#5738
0&
0*
#5740
1"
0-
#5745
0"
#5748
0,
#5750
1"
#5755
0"
#5760
1"
#5765
0"
#5770
1"
#5775
0"
#5780
1"
#5785
0"
#5790
1"
#5795
0"
#5798
1,
1*
1&
#5800
1"
1+
1'
#5805
0"
#5810
1"
1-
0'
0+
#5815
0"
#5818
0&
0*
#5820
1"
0-
#5825
0"
#5828
0,
#5830
1"
#5835
0"
#5840
1"
#5845
0"
#5850
1"
#5855
0"
#5860
1"
#5865
0"
#5870
1"
#5875
0"
#5878
1,
1*
1&
#5880
1"
1+
1'
#5885
0"
#5890
1"
0'
0+
1-
#5895
0"
#5898
0&
0*
#5900
1"
0-
#5905
0"
#5908
0,
#5910
1"
#5915
0"
#5920
1"
#5925
0"
#5930
1"
#5935
0"
#5940
1"
#5945
0"
#5950
1"
#5955
0"
#5958
1,
1*
1&
#5960
1"
1+
1'
#5965
0"
#5970
1"
1-
0'
0+
#5975
0"
#5978
0&
0*
#5980
1"
0-
#5985
0"
#5988
0,
#5990
1"
#5995
0"
#6000
1"
#6005
0"
#6010
1"
#6015
0"
#6020
1"
#6025
0"
#6030
1"
#6035
0"
#6038
1,
1*
1&
#6040
1"
1+
1'
#6045
0"
#6050
1"
0'
0+
1-
#6055
0"
#6058
0&
0*
#6060
1"
0-
#6065
0"
#6068
0,
#6070
1"
#6075
0"
#6080
1"
#6085
0"
#6090
1"
#6095
0"
#6100
1"
#6105
0"
#6110
1"
#6115
0"
#6118
1,
1*
1&
#6120
1"
1+
1'
#6125
0"
#6130
1"
1-
0'
0+
#6135
0"
#6138
0&
0*
#6140
1"
0-
#6145
0"
#6148
0,
#6150
1"
#6155
0"
#6160
1"
#6165
0"
#6170
1"
#6175
0"
#6180
1"
#6185
0"
#6190
1"
#6195
0"
#6198
1,
1*
1&
#6200
1"
1+
1'
#6205
0"
#6210
1"
0'
0+
1-
#6215
0"
#6218
0&
0*
#6220
1"
0-
#6225
0"
#6228
0,
#6230
1"
#6235
0"
#6240
1"
#6245
0"
#6250
1"
#6255
0"
#6260
1"
#6265
0"
#6270
1"
#6275
0"
#6278
1,
1*
1&
#6280
1"
1+
1'
#6285
0"
#6290
1"
1-
0'
0+
#6295
0"
#6298
0&
0*
#6300
1"
0-
#6305
0"
#6308
0,
#6310
1"
#6315
0"
#6320
1"
#6325
0"
#6330
1"
#6335
0"
#6340
1"
#6345
0"
#6350
1"
#6355
0"
#6358
1,
1*
1&
#6360
1"
1+
1'
#6365
0"
#6370
1"
0'
0+
1-
#6375
0"
#6378
0&
0*
#6380
1"
0-
#6385
0"
#6388
0,
#6390
1"
#6395
0"
#6400
1"
#6405
0"
#6410
1"
#6415
0"
#6420
1"
#6425
0"
#6430
1"
#6435
0"
#6438
1,
1*
1&
#6440
1"
1+
1'
#6445
0"
#6450
1"
1-
0'
0+
#6455
0"
#6458
0&
0*
#6460
1"
0-
#6465
0"
#6468
0,
#6470
1"
#6475
0"
#6480
1"
#6485
0"
#6490
1"
#6495
0"
#6500
1"
#6505
0"
#6510
1"
#6515
0"
#6518
1,
1*
1&
#6520
1"
1+
1'
#6525
0"
#6530
1"
0'
0+
1-
#6535
0"
#6538
0&
0*
#6540
1"
0-
#6545
0"
#6548
0,
#6550
1"
#6555
0"
#6560
1"
#6565
0"
#6570
1"
#6575
0"
#6580
1"
#6585
0"
#6590
1"
#6595
0"
#6598
1,
1*
1&
#6600
1"
1+
1'
#6605
0"
#6610
1"
1-
0'
0+
#6615
0"
#6618
0&
0*
#6620
1"
0-
#6625
0"
#6628
0,
#6630
1"
#6635
0"
#6640
1"
#6645
0"
#6650
1"
#6655
0"
#6660
1"
#6665
0"
#6670
1"
#6675
0"
#6678
1,
1*
1&
#6680
1"
1+
1'
#6685
0"
#6690
1"
0'
0+
1-
#6695
0"
#6698
0&
0*
#6700
1"
0-
#6705
0"
#6708
0,
#6710
1"
#6715
0"
#6720
1"
#6725
0"
#6730
1"
#6735
0"
#6740
1"
#6745
0"
#6750
1"
#6755
0"
#6758
1,
1*
1&
#6760
1"
1+
1'
#6765
0"
#6770
1"
1-
0'
0+
#6775
0"
#6778
0&
0*
#6780
1"
0-
#6785
0"
#6788
0,
#6790
1"
#6795
0"
#6800
1"
#6805
0"
#6810
1"
#6815
0"
#6820
1"
#6825
0"
#6830
1"
#6835
0"
#6838
1,
1*
1&
#6840
1"
1+
1'
#6845
0"
#6850
1"
0'
0+
1-
#6855
0"
#6858
0&
0*
#6860
1"
0-
#6865
0"
#6868
0,
#6870
1"
#6875
0"
#6880
1"
#6885
0"
#6890
1"
#6895
0"
#6900
1"
#6905
0"
#6910
1"
#6915
0"
#6918
1,
1*
1&
#6920
1"
1+
1'
#6925
0"
#6930
1"
1-
0'
0+
#6935
0"
#6938
0&
0*
#6940
1"
0-
#6945
0"
#6948
0,
#6950
1"
#6955
0"
#6960
1"
#6965
0"
#6970
1"
#6975
0"
#6980
1"
#6985
0"
#6990
1"
#6995
0"
#6998
1,
1*
1&
#7000
1"
1+
1'
#7005
0"
#7010
1"
0'
0+
1-
#7015
0"
#7018
0&
0*
#7020
1"
0-
#7025
0"
#7028
0,
#7030
1"
#7035
0"
#7040
1"
#7045
0"
#7050
1"
#7055
0"
#7060
1"
#7065
0"
#7070
1"
#7075
0"
#7078
1,
1*
1&
#7080
1"
1+
1'
#7085
0"
#7090
1"
1-
0'
0+
#7095
0"
#7098
0&
0*
#7100
1"
0-
#7105
0"
#7108
0,
#7110
1"
#7115
0"
#7120
1"
#7125
0"
#7130
1"
#7135
0"
#7140
1"
#7145
0"
#7150
1"
#7155
0"
#7158
1,
1*
1&
#7160
1"
1+
1'
#7165
0"
#7170
1"
0'
0+
1-
#7175
0"
#7178
0&
0*
#7180
1"
0-
#7185
0"
#7188
0,
#7190
1"
#7195
0"
#7200
1"
#7205
0"
#7210
1"
#7215
0"
#7220
1"
#7225
0"
#7230
1"
#7235
0"
#7238
1,
1*
1&
#7240
1"
1+
1'
#7245
0"
#7250
1"
1-
0'
0+
#7255
0"
#7258
0&
0*
#7260
1"
0-
#7265
0"
#7268
0,
#7270
1"
#7275
0"
#7280
1"
#7285
0"
#7290
1"
#7295
0"
#7300
1"
#7305
0"
#7310
1"
#7315
0"
#7318
1,
1*
1&
#7320
1"
1+
1'
#7325
0"
#7330
1"
0'
0+
1-
#7335
0"
#7338
0&
0*
#7340
1"
0-
#7345
0"
#7348
0,
#7350
1"
#7355
0"
